{
	"info": {
		"_postman_id": "07ff1fd0-ba99-4d08-860b-c212cd8b721e",
		"name": "capstone",
		"schema": "https://schema.getpostman.com/json/collection/v2.1.0/collection.json",
		"_exporter_id": "29977927"
	},
	"item": [
		{
			"name": "userLogin",
			"request": {
				"method": "POST",
				"header": [],
				"body": {
					"mode": "raw",
					"raw": "{\r\n    \"email\" : \"meme@gmail.com\",\r\n    \"mat_khau\": \"1234\"\r\n}",
					"options": {
						"raw": {
							"language": "json"
						}
					}
				},
				"url": {
					"raw": "http://localhost:8080/user/user-login",
					"protocol": "http",
					"host": [
						"localhost"
					],
					"port": "8080",
					"path": [
						"user",
						"user-login"
					]
				}
			},
			"response": []
		},
		{
			"name": "userRegister",
			"request": {
				"method": "POST",
				"header": [],
				"body": {
					"mode": "raw",
					"raw": "{\r\n    \"email\": \"meme@gmail.com\",\r\n    \"mat_khau\": \"1234\",\r\n    \"ho_ten\": \"me\",\r\n    \"tuoi\":\"21\"\r\n}",
					"options": {
						"raw": {
							"language": "json"
						}
					}
				},
				"url": {
					"raw": "http://localhost:8080/user/user-register",
					"protocol": "http",
					"host": [
						"localhost"
					],
					"port": "8080",
					"path": [
						"user",
						"user-register"
					]
				}
			},
			"response": []
		},
		{
			"name": "getImage",
			"request": {
				"method": "GET",
				"header": [
					{
						"key": "token",
						"value": "eyJhbGciOiJIUzI1NiIsInR5cCI6IkpXVCJ9.eyJkYXRhIjp7Im5ndW9pX2R1bmdfaWQiOjExLCJlbWFpbCI6Im1lbWVAZ21haWwuY29tIiwibWF0X2toYXUiOiIkMmIkMTAkbzRjOWFIQ1BNeU9Fa2N4Uk9kSzhlZVhsQS5WcVd0MlBBMVhnbEdYc2lzRnRKVzBQb0FBNTIiLCJob190ZW4iOiJtZSIsInR1b2kiOjIxLCJhbmhfZGFpX2RpZW4iOiIifSwiaWF0IjoxNzAwMDE5NTY2LCJleHAiOjI1NjQwMTk1NjZ9.mOIRMw17n85DDsXf60z7ENjlwYiDzJg9A3qZFRFowpA",
						"type": "text"
					}
				],
				"url": {
					"raw": "http://localhost:8080/image/get-image",
					"protocol": "http",
					"host": [
						"localhost"
					],
					"port": "8080",
					"path": [
						"image",
						"get-image"
					]
				}
			},
			"response": []
		},
		{
			"name": "searchNameImage",
			"protocolProfileBehavior": {
				"disableBodyPruning": true
			},
			"request": {
				"method": "GET",
				"header": [
					{
						"key": "token",
						"value": "eyJhbGciOiJIUzI1NiIsInR5cCI6IkpXVCJ9.eyJkYXRhIjp7Im5ndW9pX2R1bmdfaWQiOjExLCJlbWFpbCI6Im1lbWVAZ21haWwuY29tIiwibWF0X2toYXUiOiIkMmIkMTAkbzRjOWFIQ1BNeU9Fa2N4Uk9kSzhlZVhsQS5WcVd0MlBBMVhnbEdYc2lzRnRKVzBQb0FBNTIiLCJob190ZW4iOiJtZSIsInR1b2kiOjIxLCJhbmhfZGFpX2RpZW4iOiIifSwiaWF0IjoxNzAwMDE5NTY2LCJleHAiOjI1NjQwMTk1NjZ9.mOIRMw17n85DDsXf60z7ENjlwYiDzJg9A3qZFRFowpA",
						"type": "text"
					}
				],
				"body": {
					"mode": "formdata",
					"formdata": [
						{
							"key": "",
							"value": "",
							"type": "text"
						}
					]
				},
				"url": {
					"raw": "http://localhost:8080/image/search-name-image/ha",
					"protocol": "http",
					"host": [
						"localhost"
					],
					"port": "8080",
					"path": [
						"image",
						"search-name-image",
						"ha"
					]
				}
			},
			"response": []
		},
		{
			"name": "getDetailInfoByIdImage",
			"request": {
				"method": "GET",
				"header": [
					{
						"key": "token",
						"value": "eyJhbGciOiJIUzI1NiIsInR5cCI6IkpXVCJ9.eyJkYXRhIjp7Im5ndW9pX2R1bmdfaWQiOjExLCJlbWFpbCI6Im1lbWVAZ21haWwuY29tIiwibWF0X2toYXUiOiIkMmIkMTAkbzRjOWFIQ1BNeU9Fa2N4Uk9kSzhlZVhsQS5WcVd0MlBBMVhnbEdYc2lzRnRKVzBQb0FBNTIiLCJob190ZW4iOiJtZSIsInR1b2kiOjIxLCJhbmhfZGFpX2RpZW4iOiIifSwiaWF0IjoxNzAwMDE5NTY2LCJleHAiOjI1NjQwMTk1NjZ9.mOIRMw17n85DDsXf60z7ENjlwYiDzJg9A3qZFRFowpA",
						"type": "text"
					}
				],
				"url": {
					"raw": "http://localhost:8080/image/get-info-by-idImage/3",
					"protocol": "http",
					"host": [
						"localhost"
					],
					"port": "8080",
					"path": [
						"image",
						"get-info-by-idImage",
						"3"
					]
				}
			},
			"response": []
		},
		{
			"name": "getCommentByIdImage",
			"request": {
				"method": "GET",
				"header": [
					{
						"key": "token",
						"value": "eyJhbGciOiJIUzI1NiIsInR5cCI6IkpXVCJ9.eyJkYXRhIjp7Im5ndW9pX2R1bmdfaWQiOjExLCJlbWFpbCI6Im1lbWVAZ21haWwuY29tIiwibWF0X2toYXUiOiIkMmIkMTAkbzRjOWFIQ1BNeU9Fa2N4Uk9kSzhlZVhsQS5WcVd0MlBBMVhnbEdYc2lzRnRKVzBQb0FBNTIiLCJob190ZW4iOiJtZSIsInR1b2kiOjIxLCJhbmhfZGFpX2RpZW4iOiIifSwiaWF0IjoxNzAwMDE5NTY2LCJleHAiOjI1NjQwMTk1NjZ9.mOIRMw17n85DDsXf60z7ENjlwYiDzJg9A3qZFRFowpA",
						"type": "text"
					}
				],
				"url": {
					"raw": "http://localhost:8080/image/get-comment-by-idImage/3",
					"protocol": "http",
					"host": [
						"localhost"
					],
					"port": "8080",
					"path": [
						"image",
						"get-comment-by-idImage",
						"3"
					]
				}
			},
			"response": []
		},
		{
			"name": "getSavedByIdImage",
			"request": {
				"method": "GET",
				"header": [
					{
						"key": "token",
						"value": "eyJhbGciOiJIUzI1NiIsInR5cCI6IkpXVCJ9.eyJkYXRhIjp7Im5ndW9pX2R1bmdfaWQiOjExLCJlbWFpbCI6Im1lbWVAZ21haWwuY29tIiwibWF0X2toYXUiOiIkMmIkMTAkbzRjOWFIQ1BNeU9Fa2N4Uk9kSzhlZVhsQS5WcVd0MlBBMVhnbEdYc2lzRnRKVzBQb0FBNTIiLCJob190ZW4iOiJtZSIsInR1b2kiOjIxLCJhbmhfZGFpX2RpZW4iOiIifSwiaWF0IjoxNzAwMDE5NTY2LCJleHAiOjI1NjQwMTk1NjZ9.mOIRMw17n85DDsXf60z7ENjlwYiDzJg9A3qZFRFowpA",
						"type": "text"
					}
				],
				"url": {
					"raw": "http://localhost:8080/image/get-saved-by-idImage/9",
					"protocol": "http",
					"host": [
						"localhost"
					],
					"port": "8080",
					"path": [
						"image",
						"get-saved-by-idImage",
						"9"
					]
				}
			},
			"response": []
		},
		{
			"name": "saveComment",
			"request": {
				"method": "POST",
				"header": [
					{
						"key": "token",
						"value": "eyJhbGciOiJIUzI1NiIsInR5cCI6IkpXVCJ9.eyJkYXRhIjp7Im5ndW9pX2R1bmdfaWQiOjExLCJlbWFpbCI6Im1lbWVAZ21haWwuY29tIiwibWF0X2toYXUiOiIkMmIkMTAkbzRjOWFIQ1BNeU9Fa2N4Uk9kSzhlZVhsQS5WcVd0MlBBMVhnbEdYc2lzRnRKVzBQb0FBNTIiLCJob190ZW4iOiJtZSIsInR1b2kiOjIxLCJhbmhfZGFpX2RpZW4iOiIifSwiaWF0IjoxNzAwMDE5NTY2LCJleHAiOjI1NjQwMTk1NjZ9.mOIRMw17n85DDsXf60z7ENjlwYiDzJg9A3qZFRFowpA",
						"type": "text"
					}
				],
				"body": {
					"mode": "raw",
					"raw": "{\r\n    \"noi_dung\": \" hello\"\r\n}",
					"options": {
						"raw": {
							"language": "json"
						}
					}
				},
				"url": {
					"raw": "http://localhost:8080/user/saved-comment/3",
					"protocol": "http",
					"host": [
						"localhost"
					],
					"port": "8080",
					"path": [
						"user",
						"saved-comment",
						"3"
					]
				}
			},
			"response": []
		},
		{
			"name": "getInfoUser",
			"request": {
				"method": "GET",
				"header": [
					{
						"key": "token",
						"value": "eyJhbGciOiJIUzI1NiIsInR5cCI6IkpXVCJ9.eyJkYXRhIjp7Im5ndW9pX2R1bmdfaWQiOjExLCJlbWFpbCI6Im1lbWVAZ21haWwuY29tIiwibWF0X2toYXUiOiIkMmIkMTAkbzRjOWFIQ1BNeU9Fa2N4Uk9kSzhlZVhsQS5WcVd0MlBBMVhnbEdYc2lzRnRKVzBQb0FBNTIiLCJob190ZW4iOiJtZSIsInR1b2kiOjIxLCJhbmhfZGFpX2RpZW4iOiIifSwiaWF0IjoxNzAwMDIwMjc1LCJleHAiOjI1NjQwMjAyNzV9.N7SP-kbEeeZB9Jp_nfBcUxyY-Pw8E8PIV8_lpc45250",
						"type": "text"
					}
				],
				"url": {
					"raw": "http://localhost:8080/user/get-user-info",
					"protocol": "http",
					"host": [
						"localhost"
					],
					"port": "8080",
					"path": [
						"user",
						"get-user-info"
					]
				}
			},
			"response": []
		},
		{
			"name": "getListSavedImageByUserId",
			"request": {
				"method": "GET",
				"header": [
					{
						"key": "token",
						"value": "eyJhbGciOiJIUzI1NiIsInR5cCI6IkpXVCJ9.eyJkYXRhIjp7Im5ndW9pX2R1bmdfaWQiOjExLCJlbWFpbCI6Im1lbWVAZ21haWwuY29tIiwibWF0X2toYXUiOiIkMmIkMTAkbzRjOWFIQ1BNeU9Fa2N4Uk9kSzhlZVhsQS5WcVd0MlBBMVhnbEdYc2lzRnRKVzBQb0FBNTIiLCJob190ZW4iOiJtZSIsInR1b2kiOjIxLCJhbmhfZGFpX2RpZW4iOiIifSwiaWF0IjoxNzAwMDIwMjc1LCJleHAiOjI1NjQwMjAyNzV9.N7SP-kbEeeZB9Jp_nfBcUxyY-Pw8E8PIV8_lpc45250",
						"type": "text"
					}
				],
				"url": {
					"raw": "http://localhost:8080/user/get-list-saved-image-by-userId",
					"protocol": "http",
					"host": [
						"localhost"
					],
					"port": "8080",
					"path": [
						"user",
						"get-list-saved-image-by-userId"
					]
				}
			},
			"response": []
		},
		{
			"name": "getListCreatedImageByUserId",
			"request": {
				"method": "GET",
				"header": [
					{
						"key": "token",
						"value": "eyJhbGciOiJIUzI1NiIsInR5cCI6IkpXVCJ9.eyJkYXRhIjp7Im5ndW9pX2R1bmdfaWQiOjExLCJlbWFpbCI6Im1lbWVAZ21haWwuY29tIiwibWF0X2toYXUiOiIkMmIkMTAkbzRjOWFIQ1BNeU9Fa2N4Uk9kSzhlZVhsQS5WcVd0MlBBMVhnbEdYc2lzRnRKVzBQb0FBNTIiLCJob190ZW4iOiJtZSIsInR1b2kiOjIxLCJhbmhfZGFpX2RpZW4iOiIifSwiaWF0IjoxNzAwMDIwMjc1LCJleHAiOjI1NjQwMjAyNzV9.N7SP-kbEeeZB9Jp_nfBcUxyY-Pw8E8PIV8_lpc45250",
						"type": "text"
					}
				],
				"url": {
					"raw": "http://localhost:8080/user/get-list-created-image-by-userId",
					"protocol": "http",
					"host": [
						"localhost"
					],
					"port": "8080",
					"path": [
						"user",
						"get-list-created-image-by-userId"
					]
				}
			},
			"response": []
		},
		{
			"name": "deleteImage",
			"request": {
				"method": "DELETE",
				"header": [
					{
						"key": "token",
						"value": "eyJhbGciOiJIUzI1NiIsInR5cCI6IkpXVCJ9.eyJkYXRhIjp7Im5ndW9pX2R1bmdfaWQiOjExLCJlbWFpbCI6Im1lbWVAZ21haWwuY29tIiwibWF0X2toYXUiOiIkMmIkMTAkbzRjOWFIQ1BNeU9Fa2N4Uk9kSzhlZVhsQS5WcVd0MlBBMVhnbEdYc2lzRnRKVzBQb0FBNTIiLCJob190ZW4iOiJtZSIsInR1b2kiOjIxLCJhbmhfZGFpX2RpZW4iOiIifSwiaWF0IjoxNzAwMDIwMjc1LCJleHAiOjI1NjQwMjAyNzV9.N7SP-kbEeeZB9Jp_nfBcUxyY-Pw8E8PIV8_lpc45250",
						"type": "text"
					}
				],
				"url": {
					"raw": "http://localhost:8080/image/delete-image/13",
					"protocol": "http",
					"host": [
						"localhost"
					],
					"port": "8080",
					"path": [
						"image",
						"delete-image",
						"13"
					]
				}
			},
			"response": []
		},
		{
			"name": "updateUserInfo",
			"request": {
				"method": "PUT",
				"header": [
					{
						"key": "token",
						"value": "eyJhbGciOiJIUzI1NiIsInR5cCI6IkpXVCJ9.eyJkYXRhIjp7Im5ndW9pX2R1bmdfaWQiOjExLCJlbWFpbCI6Im1lbWVAZ21haWwuY29tIiwibWF0X2toYXUiOiIkMmIkMTAkbzRjOWFIQ1BNeU9Fa2N4Uk9kSzhlZVhsQS5WcVd0MlBBMVhnbEdYc2lzRnRKVzBQb0FBNTIiLCJob190ZW4iOiJtZSIsInR1b2kiOjIxLCJhbmhfZGFpX2RpZW4iOiIifSwiaWF0IjoxNzAwMDIwMjc1LCJleHAiOjI1NjQwMjAyNzV9.N7SP-kbEeeZB9Jp_nfBcUxyY-Pw8E8PIV8_lpc45250",
						"type": "text"
					}
				],
				"body": {
					"mode": "raw",
					"raw": "{\r\n    \"email\": \"memem@gmail.com\",\r\n    \"mat_khau\": \"1234\",\r\n    \"ho_ten\": \"meme1234\",\r\n    \"tuoi\":\"23\"\r\n}",
					"options": {
						"raw": {
							"language": "json"
						}
					}
				},
				"url": {
					"raw": "http://localhost:8080/user/update-user-info",
					"protocol": "http",
					"host": [
						"localhost"
					],
					"port": "8080",
					"path": [
						"user",
						"update-user-info"
					]
				}
			},
			"response": []
		},
		{
			"name": "updateAvatar",
			"request": {
				"method": "PUT",
				"header": [
					{
						"key": "token",
						"value": "eyJhbGciOiJIUzI1NiIsInR5cCI6IkpXVCJ9.eyJkYXRhIjp7Im5ndW9pX2R1bmdfaWQiOjExLCJlbWFpbCI6Im1lbWVAZ21haWwuY29tIiwibWF0X2toYXUiOiIkMmIkMTAkbzRjOWFIQ1BNeU9Fa2N4Uk9kSzhlZVhsQS5WcVd0MlBBMVhnbEdYc2lzRnRKVzBQb0FBNTIiLCJob190ZW4iOiJtZSIsInR1b2kiOjIxLCJhbmhfZGFpX2RpZW4iOiIifSwiaWF0IjoxNzAwMDIwMjc1LCJleHAiOjI1NjQwMjAyNzV9.N7SP-kbEeeZB9Jp_nfBcUxyY-Pw8E8PIV8_lpc45250",
						"type": "text"
					}
				],
				"body": {
					"mode": "formdata",
					"formdata": [
						{
							"key": "file",
							"type": "file",
							"src": "/C:/Users/Thao/Downloads/Avatar.png"
						}
					]
				},
				"url": {
					"raw": "http://localhost:8080/user/update-avatar",
					"protocol": "http",
					"host": [
						"localhost"
					],
					"port": "8080",
					"path": [
						"user",
						"update-avatar"
					]
				}
			},
			"response": []
		},
		{
			"name": "createImage",
			"request": {
				"method": "POST",
				"header": [
					{
						"key": "token",
						"value": "eyJhbGciOiJIUzI1NiIsInR5cCI6IkpXVCJ9.eyJkYXRhIjp7Im5ndW9pX2R1bmdfaWQiOjExLCJlbWFpbCI6Im1lbWVAZ21haWwuY29tIiwibWF0X2toYXUiOiIkMmIkMTAkbzRjOWFIQ1BNeU9Fa2N4Uk9kSzhlZVhsQS5WcVd0MlBBMVhnbEdYc2lzRnRKVzBQb0FBNTIiLCJob190ZW4iOiJtZSIsInR1b2kiOjIxLCJhbmhfZGFpX2RpZW4iOiIifSwiaWF0IjoxNzAwMDIwMjc1LCJleHAiOjI1NjQwMjAyNzV9.N7SP-kbEeeZB9Jp_nfBcUxyY-Pw8E8PIV8_lpc45250",
						"type": "text"
					}
				],
				"body": {
					"mode": "formdata",
					"formdata": [
						{
							"key": "file",
							"type": "file",
							"src": "/C:/Users/Thao/Downloads/Content.png"
						},
						{
							"key": "mo_ta",
							"value": "abcd",
							"type": "text"
						}
					]
				},
				"url": {
					"raw": "http://localhost:8080/image/create-image",
					"protocol": "http",
					"host": [
						"localhost"
					],
					"port": "8080",
					"path": [
						"image",
						"create-image"
					]
				}
			},
			"response": []
		}
	]
}